%YAML 1.1
%TAG !u! tag:unity3d.com,2011:
--- !u!1045 &1
EditorBuildSettings:
  m_ObjectHideFlags: 0
  serializedVersion: 2
  m_Scenes:
  - enabled: 1
    path: Assets/Scenes/Lobby.unity
    guid: 9d29163577e8adf4a928d4ea8dc21d26
  - enabled: 1
    path: Assets/Scenes/Level_0.unity
    guid: d9acef4b2a270a84f9737ca27e086ab2
  - enabled: 1
    path: Assets/Scenes/Level_1.unity
    guid: 42ff797c27938c342b74527db170c45b
  - enabled: 1
    path: Assets/Scenes/Level_2.unity
    guid: 5f7deb9869faeaa44af5b85caa5a78a8
  - enabled: 1
    path: Assets/Scenes/Level_3.unity
    guid: 444e337f313f3854596dab07b8e0651f
  - enabled: 1
    path: Assets/Scenes/Level_4.unity
    guid: 02c2c68c924eb0341975df0ae9b31932
  - enabled: 1
    path: Assets/Scenes/Test.unity
    guid: 0139ab5450f37a14d89c0f973c9c5f6c
  m_configObjects: {}
